…
First run the experiment (it should take under 20 seconds):

```
julia> results = DataFrame()
0×0 DataFrame

julia> rng = Xorshifts.Xoroshiro128StarStar(1234)
RandomNumbers.Xorshifts.Xoroshiro128StarStar(0x9e929e92000004d2, 0xda409a400013489a)

julia> @time foreach(runid -> coupled_run!(10, 500, rng, results, runid), 1:20_000)
 18.736959 seconds (143.71 M allocations: 8.944 GiB, 6.78% gc time)

julia> results
60000×4 DataFrame
   Row │ runid  alg       correct  payoff
       │ Int64  String    Bool     Float64
───────┼───────────────────────────────────
     1 │     1  Greedy      false    451.0
     2 │     1  Unif         true    354.0
     3 │     1  Thompson     true    486.0
     4 │     2  Greedy       true    468.0
     5 │     2  Unif         true    264.0
   ⋮   │   ⋮       ⋮         ⋮        ⋮
 59997 │ 19999  Thompson     true    464.0
 59998 │ 20000  Greedy      false    472.0
 59999 │ 20000  Unif         true    394.0
 60000 │ 20000  Thompson     true    462.0
                         59991 rows omitted
```
…
Now we investigate correct selection probability in more detail:
```
julia> correct_wide = unstack(results, :runid, :alg, :correct)
20000×4 DataFrame
   Row │ runid  Greedy  Unif   Thompson
       │ Int64  Bool?   Bool?  Bool?
───────┼────────────────────────────────
     1 │     1   false   true      true
     2 │     2    true   true      true
     3 │     3   false   true      true
     4 │     4   false   true      true
     5 │     5   false  false     false
   ⋮   │   ⋮      ⋮       ⋮       ⋮
 19997 │ 19997   false   true      true
 19998 │ 19998   false  false      true
 19999 │ 19999   false   true      true
 20000 │ 20000   false   true      true
                      19991 rows omitted
…
