…
I am sure everyone is waiting now to get to working with DataFrames.jl. Here
it goes, we collect the data from the whole year to a `DataFrame` using the
`push!` function:
```
julia> using DataFrames

julia> usd_pln = DataFrame()
0×0 DataFrame

julia> for date in Date("2020-01-01"):Day(1):Date("2020-12-31")
           push!(usd_pln, get_rate(date), promote=true)
       end

julia> usd_pln
366×3 DataFrame
 Row │ date        bid           ask
     │ Date        Float64?      Float64?
─────┼────────────────────────────────────────
   1 │ 2020-01-01  missing       missing
   2 │ 2020-01-02        3.7597        3.8357
   3 │ 2020-01-03        3.7667        3.8427
   4 │ 2020-01-04  missing       missing
   5 │ 2020-01-05  missing       missing
   6 │ 2020-01-06  missing       missing
   7 │ 2020-01-07        3.7679        3.8441
  ⋮  │     ⋮            ⋮             ⋮
 360 │ 2020-12-25  missing       missing
 361 │ 2020-12-26  missing       missing
 362 │ 2020-12-27  missing       missing
 363 │ 2020-12-28        3.6611        3.7351
 364 │ 2020-12-29  missing       missing
 365 │ 2020-12-30        3.6833        3.7577
 366 │ 2020-12-31        3.6714        3.7456
                              352 rows omitted
```
…
