…
```
julia> @time res3d = let
           df = DataFrame(x1=UInt8[], x2=UInt8[], x3=UInt8[])
           ru = Randu(11)
           for _ in 1:ceil(Int, 2^29 / 3)
               push!(df, trunc.(UInt8, 16 .* (rand(ru), rand(ru), rand(ru))))
           end
           df
       end
 52.469085 seconds (1.25 G allocations: 18.675 GiB, 3.29% gc time)
178956971×3 DataFrame
       Row │ x1     x2     x3
           │ UInt8  UInt8  UInt8
───────────┼─────────────────────
         1 │     0      0      0
         2 │     0      2      7
         3 │    11     13     13
         4 │     1      0      9
         5 │     3     14      3
         6 │     8      2     14
         7 │     2     15      5
     ⋮     │   ⋮      ⋮      ⋮
 178956965 │     4      5      3
 178956966 │     4     12      0
 178956967 │    15      8     11
 178956968 │     6     11     11
 178956969 │    15     10     15
 178956970 │    15      3      6
 178956971 │     7      0      0
           178956957 rows omitted

julia> @time agg3d = @pipe res3d |>
                     groupby(_, [:x1, :x2, :x3]) |>
                     combine(_, nrow) |>
                     sort(_, :nrow, rev=true)
  5.939132 seconds (216 allocations: 4.667 GiB, 0.78% gc time)
3840×4 DataFrame
  Row │ x1     x2     x3     nrow
      │ UInt8  UInt8  UInt8  Int64
──────┼────────────────────────────
    1 │     5      1      7  78360
    2 │     6      7      3  78300
    3 │     3     12     12  78268
    4 │     7     13     12  78215
    5 │     2      5     11  78201
    6 │     0      2      9  78201
    7 │     5      2     13  78199
  ⋮   │   ⋮      ⋮      ⋮      ⋮
 3834 │    10      2      9   6339
 3835 │    12     15      3   6336
 3836 │    10      0     13   6332
 3837 │    11      3      4   6331
 3838 │     7      3      8   6329
 3839 │     6      3      3   6313
 3840 │     3      0     12   6299
                  3826 rows omitted
…
