…
As you see I have selected to provide only the most essential information
about packages in the output: name, version and whether package is tracking
registry, local path, or external repository.

If you would pass `direct=false` you get information about all available
packages (direct and indirect dependencies of the project). It is usually not
very useful, however, as the list tends to be long, as you can see here:

```
julia> get_pkg_status(direct=false)
62×3 DataFrame
 Row │ name                         version  tracking
     │ String                       Union…   String
─────┼────────────────────────────────────────────────
   1 │ OrderedCollections           1.4.0    registry
   2 │ LibSSH2_jll                           registry
   3 │ Statistics                            registry
   4 │ ArgTools                              registry
   5 │ Compat                       3.25.0   registry
   6 │ Reexport                     1.0.0    registry
   7 │ SharedArrays                          registry
  ⋮  │              ⋮                  ⋮        ⋮
  56 │ Dates                                 registry
  57 │ MbedTLS_jll                           registry
  58 │ Serialization                         registry
  59 │ IteratorInterfaceExtensions  1.0.0    registry
  60 │ Libdl                                 registry
  61 │ Artifacts                             registry
  62 │ InteractiveUtils                      registry
                                       48 rows omitted
```
…
