…
julia> run_sim([1.0], [1.0])
1-element Vector{Float64}:
 0.6367981

julia> 2 / π # double check if the result is correct
0.6366197723675814

julia> df = DataFrame(t = repeat(0.1:0.1:1.0, inner=9), l = repeat(0.1:0.1:1.0, outer=9))
90×2 DataFrame
 Row │ t        l
     │ Float64  Float64
─────┼──────────────────
   1 │     0.1      0.1
   2 │     0.1      0.2
   3 │     0.1      0.3
  ⋮  │    ⋮        ⋮
  88 │     1.0      0.8
  89 │     1.0      0.9
  90 │     1.0      1.0
         84 rows omitted

julia> transform!(df, [:t, :l] => ByRow(analytical_cross) => :prob_a)
90×3 DataFrame
 Row │ t        l        prob_a
     │ Float64  Float64  Float64
─────┼────────────────────────────
   1 │     0.1      0.1  0.63662
   2 │     0.1      0.2  0.837248
   3 │     0.1      0.3  0.89288
  ⋮  │    ⋮        ⋮        ⋮
  88 │     1.0      0.8  0.509296
  89 │     1.0      0.9  0.572958
  90 │     1.0      1.0  0.63662
                   84 rows omitted

julia> @time transform!(df, [:t, :l] => run_sim => :prob_s)
 27.173996 seconds (3.67 k allocations: 235.219 KiB, 0.03% compilation time)
90×4 DataFrame
 Row │ t        l        prob_a    prob_s
     │ Float64  Float64  Float64   Float64
─────┼──────────────────────────────────────
   1 │     0.1      0.1  0.63662   0.63651
   2 │     0.1      0.2  0.837248  0.83734
   3 │     0.1      0.3  0.89288   0.892879
  ⋮  │    ⋮        ⋮        ⋮         ⋮
  88 │     1.0      0.8  0.509296  0.509203
  89 │     1.0      0.9  0.572958  0.57293
  90 │     1.0      1.0  0.63662   0.636605
                             84 rows omitted
…
julia> run_sim([1.0], [1.0])
1-element Vector{Float64}:
 0.6366706

julia> 2 / π # double check if the result is correct
0.6366197723675814

julia> df = DataFrame(t = repeat(0.1:0.1:1.0, inner=9), l = repeat(0.1:0.1:1.0, outer=9))
90×2 DataFrame
 Row │ t        l
     │ Float64  Float64
─────┼──────────────────
   1 │     0.1      0.1
   2 │     0.1      0.2
   3 │     0.1      0.3
  ⋮  │    ⋮        ⋮
  89 │     1.0      0.9
  90 │     1.0      1.0
         85 rows omitted

julia> transform!(df, [:t, :l] => ByRow(analytical_cross) => :prob_a)
90×3 DataFrame
 Row │ t        l        prob_a
     │ Float64  Float64  Float64
─────┼────────────────────────────
   1 │     0.1      0.1  0.63662
   2 │     0.1      0.2  0.837248
   3 │     0.1      0.3  0.89288
  ⋮  │    ⋮        ⋮        ⋮
  89 │     1.0      0.9  0.572958
  90 │     1.0      1.0  0.63662
                   85 rows omitted

julia> @time transform!(df, [:t, :l] => run_sim => :prob_s)
  7.612572 seconds (4.35 k allocations: 341.516 KiB, 0.11% compilation time)
90×4 DataFrame
 Row │ t        l        prob_a    prob_s
     │ Float64  Float64  Float64   Float64
─────┼──────────────────────────────────────
   1 │     0.1      0.1  0.63662   0.636561
   2 │     0.1      0.2  0.837248  0.83723
   3 │     0.1      0.3  0.89288   0.892781
  ⋮  │    ⋮        ⋮        ⋮         ⋮
  89 │     1.0      0.9  0.572958  0.573051
  90 │     1.0      1.0  0.63662   0.636735
                             85 rows omitted
…
