…
    return DataFrame(id=id, vars=1:9, mse_whole=mse_wholes, mse_cv=mse_cvs, mse_t=mse_ts)
end
```

# The experiment

Let us now run 1000 independent repetitions of our experiment and analyze
the results:

```
julia> Random.seed!(12);

julia> res = reduce(vcat, [runtest(i) for i in 1:1000])
9000×5 DataFrame
  Row │ id     vars   mse_whole  mse_cv   mse_t
      │ Int64  Int64  Float64    Float64  Float64
──────┼───────────────────────────────────────────
    1 │     1      1   5.44188   5.84075  5.15904
    2 │     1      2   2.8385    3.16917  4.4904
    3 │     1      3   2.29577   2.71023  3.48133
    4 │     1      4   1.71476   2.05224  2.31772
    5 │     1      5   0.859515  1.04158  1.14846
    6 │     1      6   0.853335  1.11315  1.17749
    7 │     1      7   0.845039  1.12457  1.18426
  ⋮   │   ⋮      ⋮        ⋮         ⋮        ⋮
 8995 │  1000      4   1.41656   1.64706  2.42478
 8996 │  1000      5   0.886208  1.11717  1.2702
 8997 │  1000      6   0.885057  1.18246  1.26373
 8998 │  1000      7   0.884199  1.26832  1.25502
 8999 │  1000      8   0.849425  1.24977  1.33918
 9000 │  1000      9   0.829926  1.24833  1.35149
                                 8987 rows omitted
```
…
We can see that on the average `mse_whole` decreases with number of variables,
while `mse_cv` and `mse_t` has a minimum for five variables. Also `mse_cv` is
slightly biased upwards in comparison to `mse_t`, while `mse_whole` is
significantly biased downwards. All this was expected.

However, we are interested in model selection. So let us check which models
would get selected by the three criteria:

```
julia> best = combine(groupby(res, :id), names(res, r"mse") .=> argmin)
1000×4 DataFrame
  Row │ id     mse_whole_argmin  mse_cv_argmin  mse_t_argmin
      │ Int64  Int64             Int64          Int64
──────┼──────────────────────────────────────────────────────
    1 │     1                 9              5             5
    2 │     2                 9              5             5
    3 │     3                 9              6             5
    4 │     4                 9              5             5
    5 │     5                 9              5             5
    6 │     6                 9              5             5
    7 │     7                 9              5             6
  ⋮   │   ⋮           ⋮                ⋮             ⋮
  995 │   995                 9              5             5
  996 │   996                 9              5             8
  997 │   997                 9              5             5
  998 │   998                 9              5             6
  999 │   999                 9              5             5
 1000 │  1000                 9              5             7
                                             987 rows omitted
…
For `mse_cv` it selects the model that would be selected by `mse_t` in a bit
less than 50% of cases. We can also see that in general it has a slight
tendency to pick models with too many variables. However, it should be noted
that also under `mse_t` it would be sometimes better to pick a more complex
model given the concrete sampled training data.

Finally let us compare a relative MSE loss of using a whole model and using a
model picked by cross validation:

```
julia> loss = combine(groupby(res, :id)) do sdf
           (loss_whole = sdf.mse_t[argmin(sdf.mse_whole)] / minimum(sdf.mse_t) - 1,
            loss_cv = sdf.mse_t[argmin(sdf.mse_cv)] / minimum(sdf.mse_t) - 1)
       end
1000×3 DataFrame
  Row │ id     loss_whole  loss_cv
      │ Int64  Float64     Float64
──────┼────────────────────────────────
    1 │     1  0.246816    0.0
    2 │     2  0.0582093   0.0
    3 │     3  0.068783    0.0510148
    4 │     4  0.00661844  0.0
    5 │     5  0.00934061  0.0
  ⋮   │   ⋮        ⋮            ⋮
  997 │   997  0.0243234   0.0
  998 │   998  0.0965239   0.00218267
  999 │   999  0.0966297   0.0
 1000 │  1000  0.0768627   0.0120936
                       991 rows omitted
…
