…
In the first approach we wrapped both `:a` and `:b` in a vector, and in the second
we used the pseudo-broadcasting supported by the `DataFrame` constructor again.

# Why using nested vectors might be beneficial?

There are two kinds of benefits. One is readability. The other is performance.

Regarding the readability. Consider you have a homogeneous set of values. Then
you might prefer to store them in a one column to keep them together.
Here is an example of such data:

```
julia> df1 = DataFrame(x = [fill(i, 1000) for i in 1:10000])
10000×1 DataFrame
   Row │ x
       │ Array…
───────┼───────────────────────────────────
     1 │ [1, 1, 1, 1, 1, 1, 1, 1, 1, 1  ……
     2 │ [2, 2, 2, 2, 2, 2, 2, 2, 2, 2  ……
     3 │ [3, 3, 3, 3, 3, 3, 3, 3, 3, 3  ……
   ⋮   │                 ⋮
  9999 │ [9999, 9999, 9999, 9999, 9999, 9…
 10000 │ [10000, 10000, 10000, 10000, 100…
                          9995 rows omitted

julia> df2 = select(df1, :x => AsTable)
10000×1000 DataFrame
   Row │ x1     x2     x3     x4     x5     x6     x7     x8  ⋯
       │ Int64  Int64  Int64  Int64  Int64  Int64  Int64  Int ⋯
───────┼───────────────────────────────────────────────────────
     1 │     1      1      1      1      1      1      1      ⋯
     2 │     2      2      2      2      2      2      2
     3 │     3      3      3      3      3      3      3
   ⋮   │   ⋮      ⋮      ⋮      ⋮      ⋮      ⋮      ⋮      ⋮ ⋱
  9999 │  9999   9999   9999   9999   9999   9999   9999   99
 10000 │ 10000  10000  10000  10000  10000  10000  10000  100 ⋯
                              993 columns and 9995 rows omitted
```
…
