…
# The baseline

In the baseline scenario I join tables that do not contain any strings.

Here is my benchmark:

```
julia> using DataFrames

julia> using BenchmarkTools

julia> df1 = DataFrame(id=1:5*10^7, left=1:5*10^7)
50000000×2 DataFrame
      Row │ id        left
          │ Int64     Int64
──────────┼────────────────────
        1 │        1         1
        2 │        2         2
    ⋮     │    ⋮         ⋮
 49999999 │ 49999999  49999999
 50000000 │ 50000000  50000000
          49999996 rows omitted

julia> df2 = DataFrame(id=1:5*10^7, right=1:5*10^7)
50000000×2 DataFrame
      Row │ id        right
          │ Int64     Int64
──────────┼────────────────────
        1 │        1         1
        2 │        2         2
    ⋮     │    ⋮         ⋮
 49999999 │ 49999999  49999999
 50000000 │ 50000000  50000000
          49999996 rows omitted
…
