…
Now these indices can be used to subset a data frame as follows. Assume we have
a large data frame having columns `:x` and `:y` and want to get top 10 rows
with respect to column `:x`. You can achieve it efficiently like this:

```
julia> using DataFrames

julia> Random.seed!(1234)
MersenneTwister(1234)

julia> df = DataFrame(x=rand(10^6), y=rand(10^6))
1000000×2 DataFrame
     Row │ x          y
         │ Float64    Float64
─────────┼──────────────────────
       1 │ 0.590845   0.901919
       2 │ 0.766797   0.491144
       3 │ 0.566237   0.0750416
       4 │ 0.460085   0.476479
       5 │ 0.794026   0.296354
       6 │ 0.854147   0.399129
       7 │ 0.200586   0.0894096
    ⋮    │     ⋮          ⋮
  999994 │ 0.798217   0.645084
  999995 │ 0.587953   0.978664
  999996 │ 0.47863    0.105387
  999997 │ 0.444533   0.0169648
  999998 │ 0.0250811  0.921271
  999999 │ 0.527551   0.731145
 1000000 │ 0.713854   0.0222126
             999986 rows omitted
…
