…
julia> sol1 = solve(prob, Rosenbrock23());

julia> DataFrame(sol1)
3×61 DataFrame
 Row │ x1       x2           x3          x4          x5          x6           ⋯
     │ Float64  Float64      Float64     Float64     Float64     Float64      ⋯
─────┼─────────────────────────────────────────────────────────────────────────
   1 │     1.0  0.999925     0.999178    0.995241    0.989338    0.977794     ⋯
   2 │     0.0  0.000209532  0.00230391  0.0134134   0.0302987   0.0641965
   3 │     0.0  7.83999e-10  9.47873e-8  3.21298e-6  1.63912e-5  7.35689e-5
                                                             55 columns omitted

julia> DataFrame(Tables.columntable(sol1))
61×4 DataFrame
 Row │ timestamp    value1     value2        value3
     │ Float64      Float64    Float64       Float64
─────┼────────────────────────────────────────────────────
   1 │ 0.0           1.0        0.0           0.0
   2 │ 7.48361e-6    0.999925   0.000209532   7.83999e-10
   3 │ 8.23197e-5    0.999178   0.00230391    9.47873e-8
   4 │ 0.000480311   0.995241   0.0134134     3.21298e-6
   5 │ 0.00108852    0.989338   0.0302987     1.63912e-5
   6 │ 0.00232154    0.977794   0.0641965     7.35689e-5
   7 │ 0.00391981    0.963652   0.107499      0.000206214
  ⋮  │      ⋮           ⋮           ⋮             ⋮
  55 │ 0.735315     -7.14414   -8.67351      25.5598
  56 │ 0.771575     -7.66582   -9.02351      25.4699
  57 │ 0.812974     -8.20321   -9.44232      25.6821
  58 │ 0.859509     -8.74036   -9.79982      26.2593
  59 │ 0.908783     -9.18149   -9.8967       27.1128
  60 │ 0.960609     -9.41649   -9.59708      28.0144
  61 │ 1.0          -9.39804   -9.12529      28.5183
                                           47 rows omitted
```
…
julia> u0 = [1.0, 0.0, 0.0];

julia> tspan = (0.0, 1.0);

julia> p = [10.0, 28.0, 8/3];

julia> prob = ODEProblem(parameterized_lorenz, u0, tspan, p);

julia> sol1 = solve(prob, Rosenbrock23());

julia> DataFrame(sol1)
61×4 DataFrame
 Row │ timestamp    value1     value2        value3
     │ Float64      Float64    Float64       Float64
─────┼────────────────────────────────────────────────────
   1 │ 0.0           1.0        0.0           0.0
   2 │ 7.48361e-6    0.999925   0.000209532   7.83999e-10
   3 │ 8.23197e-5    0.999178   0.00230391    9.47873e-8
   4 │ 0.000480311   0.995241   0.0134134     3.21298e-6
   5 │ 0.00108852    0.989338   0.0302987     1.63912e-5
   6 │ 0.00232154    0.977794   0.0641965     7.35689e-5
   7 │ 0.00391981    0.963652   0.107499      0.000206214
  ⋮  │      ⋮           ⋮           ⋮             ⋮
  56 │ 0.771575     -7.66582   -9.02351      25.4699
  57 │ 0.812974     -8.20321   -9.44232      25.6821
  58 │ 0.859509     -8.74036   -9.79982      26.2593
  59 │ 0.908783     -9.18149   -9.8967       27.1128
  60 │ 0.960609     -9.41649   -9.59708      28.0144
  61 │ 1.0          -9.39804   -9.12529      28.5183
                                           48 rows omitted
```
…
