…
Assume we have a data frame that has two numeric columns `:a` and `:b` and we
want to check if for all rows the value in column `:a` is less than the value in
column `:b`. We want to compare several approaches to this task and check their
performance. (I have chosen an easy task on purpose to concentrate on the issue
of iteration.)

Here is a basic approach to this problem (in all the examples I will run
the operation twice and show the `@time` output to capture the compilation
time and reflect interactive experience of the user):

```
julia> using DataFrames

julia> df = DataFrame(a=1:100_000_000, b=2:100_000_001)
100000000×2 DataFrame
       Row │ a          b
           │ Int64      Int64
───────────┼──────────────────────
         1 │         1          2
         2 │         2          3
     ⋮     │     ⋮          ⋮
  99999999 │  99999999  100000000
 100000000 │ 100000000  100000001
             99999996 rows omitted
…
