…
julia> Base.summarysize(PooledArray(v, compress=true))
4000532
```

There is one more benefit of using `PooledArray` when working with DataFrames.jl.
You can expect grouping and join operations to be performed faster. Here are
some examples:

```
julia> using DataFrames

julia> using BenchmarkTools

julia> df = DataFrame(;v, pv, pv2)
4000000×3 DataFrame
     Row │ v       pv      pv2
         │ String  String  String
─────────┼────────────────────────
       1 │ a       a       a
       2 │ b       b       b
       3 │ c       c       c
    ⋮    │   ⋮       ⋮       ⋮
 3999998 │ b       b       b
 3999999 │ c       c       c
 4000000 │ d       d       d
              3999994 rows omitted
…
julia> Base.summarysize(cv2)
4000564

julia> df = DataFrame(;v, cv, cv2)
4000000×3 DataFrame
     Row │ v       cv    cv2
         │ String  Cat…  Cat…
─────────┼────────────────────
       1 │ a       a       a
       2 │ b       b       b
       3 │ c       c       c
    ⋮    │   ⋮       ⋮       ⋮
 3999998 │ b       b       b
 3999999 │ c       c       c
 4000000 │ d       d       d
              3999994 rows omitted
…
