…
# Pivot table functionality of the `unstack` function

The second upcoming functionality is addition of `valuestransform` keyword
argument to `unstack`. It allows you to create pivot tables. Start with
generating some table we might want to aggregate:

```
julia> Random.seed!(1234);

julia> sales_df = DataFrame(year=rand(2020:2021, 100),
                            region=rand(["north", "center", "south"], 100),
                            sales=rand(100))
100×3 DataFrame
 Row │ year   region  sales
     │ Int64  String  Float64
─────┼──────────────────────────
   1 │  2020  center  0.558861
   2 │  2021  center  0.122447
   3 │  2020  north   0.20889
  ⋮  │   ⋮      ⋮         ⋮
  98 │  2020  center  0.983299
  99 │  2020  north   0.882375
 100 │  2021  south   0.232082
                 94 rows omitted

julia> transform!(groupby(sales_df, [:year, :region]), eachindex => :store_id)
100×4 DataFrame
 Row │ year   region  sales      store_id
     │ Int64  String  Float64    Int64
─────┼────────────────────────────────────
   1 │  2020  center  0.558861          1
   2 │  2021  center  0.122447          1
   3 │  2020  north   0.20889           1
  ⋮  │   ⋮      ⋮         ⋮         ⋮
  98 │  2020  center  0.983299         13
  99 │  2020  north   0.882375         12
 100 │  2021  south   0.232082         19
                           94 rows omitted
```
…
