…
The question was how to achieve the same with DataFrames.jl and
DataFramesMeta.jl?

Here is a solution. First we need to load the `iris` dataset (in the code I take
advantage of the fact that this dataset is bundled into DataFrames.jl
installation folders):

```
julia> using CSV

julia> iris = CSV.read(joinpath(dirname(pathof(DataFrames)),
                                "..", "docs", "src", "assets", "iris.csv"),
                       DataFrame)
150×5 DataFrame
 Row │ SepalLength  SepalWidth  PetalLength  PetalWidth  Species
     │ Float64      Float64     Float64      Float64     String15
─────┼──────────────────────────────────────────────────────────────────
   1 │         5.1         3.5          1.4         0.2  Iris-setosa
   2 │         4.9         3.0          1.4         0.2  Iris-setosa
  ⋮  │      ⋮           ⋮            ⋮           ⋮             ⋮
 149 │         6.2         3.4          5.4         2.3  Iris-virginica
 150 │         5.9         3.0          5.1         1.8  Iris-virginica
                                                        146 rows omitted
```
…
