…
julia> using BenchmarkTools

julia> using PooledArrays

julia> using CategoricalArrays

julia> Random.seed!(1234);

julia> df = transform!(DataFrame(str=[randstring() for _ in 1:10^6]),
                       :str .=>
                       [inlinestrings, ByRow(Symbol),
                        PooledArray, CategoricalArray] .=>
                       [:istr, :sym, :pstr, :cstr])
1000000×5 DataFrame
     Row │ str       istr      sym       pstr      cstr
         │ String    String15  Symbol    String    Cat…
─────────┼──────────────────────────────────────────────────
       1 │ KYDtLOxn  KYDtLOxn  KYDtLOxn  KYDtLOxn  KYDtLOxn
       2 │ UkZj0CRg  UkZj0CRg  UkZj0CRg  UkZj0CRg  UkZj0CRg
    ⋮    │    ⋮         ⋮         ⋮         ⋮         ⋮
  999999 │ CZL6fcG5  CZL6fcG5  CZL6fcG5  CZL6fcG5  CZL6fcG5
 1000000 │ 1MqvPpVb  1MqvPpVb  1MqvPpVb  1MqvPpVb  1MqvPpVb
                                         999996 rows omitted
…
