…
In the output the `class` value is number of `true` cells in the grid.

Let us now run this simulation for `d` ranging from 4 to 11 and 2048 times
for each size of the grid and keep the results in a data frame:

```
julia> using DataFrames

julia> using Statistics

julia> df = DataFrame([runsim(d) for d in 4:11 for _ in 1:2048])
16384×3 DataFrame
   Row │ d      tick   class
       │ Int64  Int64  Int64
───────┼─────────────────────
     1 │     4    595      8
     2 │     4    556      8
     3 │     4    570      8
   ⋮   │   ⋮      ⋮      ⋮
 16382 │    11  16112      0
 16383 │    11  17230    121
 16384 │    11  20914      0
           16378 rows omitted
```
…
