…
Note that in the code I download and decompress the data only if it is needed.

As a result of our operation we have written to disk the `WDI2009.dta` file
with the data. The file is in Stata format.

# Loading the data into a data frame and inspecting it

```
julia> df = "WDI2009.dta" |> ReadStatTables.readstat |> DataFrame
11123×872 DataFrame
   Row │ country   wbcode  year   AG_AGR_TRAC_NO  AG_CON_FERT_MT  AG_CON_FER ⋯
       │ String    String  Int16  Float64?        Float64?        Float64?   ⋯
───────┼──────────────────────────────────────────────────────────────────────
     1 │ Aruba     ABW      1960       missing         missing       missing ⋯
     2 │ Aruba     ABW      1961       missing         missing       missing
     3 │ Aruba     ABW      1962       missing         missing       missing
     4 │ Aruba     ABW      1963       missing         missing       missing
     5 │ Aruba     ABW      1964       missing         missing       missing ⋯
     6 │ Aruba     ABW      1965       missing         missing       missing
   ⋮   │    ⋮        ⋮       ⋮          ⋮               ⋮               ⋮    ⋱
 11118 │ Zimbabwe  ZWE      2003         24000.0        146032.0         453
 11119 │ Zimbabwe  ZWE      2004         24000.0         86352.0         268
 11120 │ Zimbabwe  ZWE      2005         24000.0         85018.0         264 ⋯
 11121 │ Zimbabwe  ZWE      2006         24000.0        132661.0     missing
 11122 │ Zimbabwe  ZWE      2007       missing         missing       missing
 11123 │ Zimbabwe  ZWE      2008       missing         missing       missing
                                            867 columns and 11111 rows omitted

julia> describe(df, :min, :max, :nmissing)
872×4 DataFrame
 Row │ variable           min          max         nmissing
     │ Symbol             Any          Any         Int64
─────┼──────────────────────────────────────────────────────
   1 │ country            Afghanistan  Zimbabwe           0
   2 │ wbcode             ABW          ZWE                0
   3 │ year               1960         2008               0
   4 │ AG_AGR_TRAC_NO     1.0          2.79193e7       2294
   5 │ AG_CON_FERT_MT     0.0          5.59256e7       3755
   6 │ AG_CON_FERT_ZS     0.0          1.57833e5       3295
  ⋮  │         ⋮               ⋮           ⋮          ⋮
 867 │ TX_VAL_OTHR_ZS_WT  -3.84e-13    100.0           5792
 868 │ TX_VAL_SERV_CD_WT  0.0          3.81092e12      5713
 869 │ TX_VAL_TECH_CD     0.0          1.80719e12      8696
 870 │ TX_VAL_TECH_MF_ZS  0.0          74.9541         8574
 871 │ TX_VAL_TRAN_ZS_WT  0.000332059  100.0           5938
 872 │ TX_VAL_TRVL_ZS_WT  0.113351     100.0           5913
                                            860 rows omitted
```
…
# Understanding metadata styles: part 1

For our analysis we will only need `:country`, `:year`, and `:SH_XPD_TOTL_ZS`
columns. Let us create a data frame holding them:

```
julia> health_df = select(df, :country, :year, :SH_XPD_TOTL_ZS)
11123×3 DataFrame
   Row │ country   year   SH_XPD_TOTL_ZS
       │ String    Int16  Float64?
───────┼─────────────────────────────────
     1 │ Aruba      1960       missing
     2 │ Aruba      1961       missing
     3 │ Aruba      1962       missing
     4 │ Aruba      1963       missing
     5 │ Aruba      1964       missing
     6 │ Aruba      1965       missing
   ⋮   │    ⋮        ⋮          ⋮
 11118 │ Zimbabwe   2003             7.6
 11119 │ Zimbabwe   2004             8.4
 11120 │ Zimbabwe   2005             8.9
 11121 │ Zimbabwe   2006             9.3
 11122 │ Zimbabwe   2007       missing
 11123 │ Zimbabwe   2008       missing
                       11111 rows omitted
```
…
In case of serialization both data and metadata are fully preserved.

# Understanding metadata styles: part 2

We already know that `:default` metadata style is never propagated (except the
`copy` function and the `DataFrame` constructor, which produce a full copy of
all data and metadata in a data frame). What are the propagation rules for
`:note`-style metadata? Let me discuss the most common cases by example.

The first rule is that dropping rows or columns does not invalidate
`:note`-style metadata:

```
julia> dropmissing!(health_df)
1025×3 DataFrame
  Row │ country      year   SH_XPD_TOTL_ZS
      │ String       Int16  Float64
──────┼────────────────────────────────────
    1 │ Andorra       2002             7.0
    2 │ Andorra       2003             7.1
    3 │ Andorra       2004             7.1
    4 │ Andorra       2005             7.5
    5 │ Andorra       2006             7.4
    6 │ Afghanistan   2002             8.3
  ⋮   │      ⋮         ⋮          ⋮
 1020 │ Zambia        2006             6.2
 1021 │ Zimbabwe      2002             8.1
 1022 │ Zimbabwe      2003             7.6
 1023 │ Zimbabwe      2004             8.4
 1024 │ Zimbabwe      2005             8.9
 1025 │ Zimbabwe      2006             9.3
                          1013 rows omitted
…
[colmetadata.year]
label = ["Year", "note"]

[metadata]
```

Again we see that `:note`-style metadata is kept.

The third rule is that if we transform a column and keep its name then also
`:note`-style metadada is kept:

```
julia> tmp4_df = transform(health_df, :country => ByRow(uppercase) => :country)
1025×3 DataFrame
  Row │ country      year   health2gdp
      │ String       Int16  Float64
──────┼────────────────────────────────
    1 │ ANDORRA       2002         7.0
    2 │ ANDORRA       2003         7.1
    3 │ ANDORRA       2004         7.1
    4 │ ANDORRA       2005         7.5
    5 │ ANDORRA       2006         7.4
    6 │ AFGHANISTAN   2002         8.3
  ⋮   │      ⋮         ⋮        ⋮
 1020 │ ZAMBIA        2006         6.2
 1021 │ ZIMBABWE      2002         8.1
 1022 │ ZIMBABWE      2003         7.6
 1023 │ ZIMBABWE      2004         8.4
 1024 │ ZIMBABWE      2005         8.9
 1025 │ ZIMBABWE      2006         9.3
                      1013 rows omitted
…
The above rule is important to remember. It assumes that the user does not
use the same column name to store qualitatively different information. In this
case the transformation was just changing country names to uppercase, which did
not change the information it carries.

However, if we wanted to change the `:health2gdp` column from percentages to
proportions we should change its name, and then metadata for this column is
dropped (you could add an appropriate label for this column manually later):

```
julia> tmp5_df = select(health_df, :country, :year,
                        :health2gdp =>
                        ByRow(x -> x / 100) =>
                        :health2gdp_prop)
1025×3 DataFrame
  Row │ country      year   health2gdp_prop
      │ String       Int16  Float64
──────┼─────────────────────────────────────
    1 │ Andorra       2002            0.07
    2 │ Andorra       2003            0.071
    3 │ Andorra       2004            0.071
    4 │ Andorra       2005            0.075
    5 │ Andorra       2006            0.074
    6 │ Afghanistan   2002            0.083
  ⋮   │      ⋮         ⋮           ⋮
 1020 │ Zambia        2006            0.062
 1021 │ Zimbabwe      2002            0.081
 1022 │ Zimbabwe      2003            0.076
 1023 │ Zimbabwe      2004            0.084
 1024 │ Zimbabwe      2005            0.089
 1025 │ Zimbabwe      2006            0.093
                           1013 rows omitted
…
Let me stress this rule again: we changed the meaning of the data in the column
(here by dividing it by 100) so we use another column name to store it. As you
can see metadata was dropped for `:healthe2gdp_prop` column.

As a side note: not using the same column name for qualitatively different
values is a good practice in general, just as not using the same variable name
to store different values in a single function.

Now let us change the shape of our data from long to wide:

```
julia> health_wide = unstack(health_df, :country, :year, :health2gdp)
205×6 DataFrame
 Row │ country               2002      2003      2004      2005      2006
     │ String                Float64?  Float64?  Float64?  Float64?  Float64?
─────┼────────────────────────────────────────────────────────────────────────
   1 │ Andorra                7.0        7.1      7.1       7.5       7.4
   2 │ Afghanistan            8.3        8.5      8.5       9.5       9.2
   3 │ Angola                 2.3        2.6      2.0       1.9       2.6
   4 │ Albania                6.3        6.3      6.8       6.6       6.5
   5 │ United Arab Emirates   3.4        3.2      2.9       2.7       2.5
   6 │ Argentina              8.9        8.3      9.6      10.2      10.1
  ⋮  │          ⋮               ⋮         ⋮         ⋮         ⋮         ⋮
 200 │ World                  9.94274   10.0342   9.92719   9.87598   9.76724
 201 │ Samoa                  4.9        5.1      4.9       4.8       5.0
 202 │ Yemen, Rep.            4.7        5.1      5.0       5.2       4.5
 203 │ South Africa           8.3        8.0      8.0       8.0       8.0
 204 │ Zambia                 6.6        6.6      6.5       6.8       6.2
 205 │ Zimbabwe               8.1        7.6      8.4       8.9       9.3
                                                              193 rows omitted
…
