…
My post today was meant to be a quick reference for Julia users who sometimes
hit these issues when working with their data. My experience is that the most
common scenario of this kind is connected with missing data. Here is a typical
problematic case:

```
julia> using DataFrames

julia> using Random

julia> Random.seed!(1234);

julia> df = DataFrame(id=rand(1:10^6, 10^6),
                      value=rand([1:10; missing], 10^6))
1000000×2 DataFrame
     Row │ id      value
         │ Int64   Int64?
─────────┼─────────────────
       1 │ 325977        4
       2 │ 549052        9
       3 │ 218587        9
       4 │ 894246        8
       5 │ 353112        1
       6 │ 394256       10
       7 │ 953125  missing
       8 │ 795547        5
       9 │ 494250        1
    ⋮    │   ⋮        ⋮
  999993 │ 967428        9
  999994 │ 557085        1
  999995 │ 353965        5
  999996 │ 590548       10
  999997 │ 657727        2
  999998 │ 928733        3
  999999 │ 884126  missing
 1000000 │ 587503        2
        999983 rows omitted
```
…
Now notice that some groups will only have `missing` values (in the output below
group with `:id` equal to `12` in row 7 is such a case):

```
julia> combine(groupby(df, :id),
               :value => (x -> mean(ismissing, x)) => :propmissing)
632166×2 DataFrame
    Row │ id       propmissing
        │ Int64    Float64
────────┼──────────────────────
      1 │       2     0.0
      2 │       3     0.25
      3 │       4     0.0
      4 │       6     0.0
      5 │       8     0.0
      6 │       9     0.333333
      7 │      12     1.0
      8 │      15     0.5
      9 │      16     0.0
   ⋮    │    ⋮          ⋮
 632159 │  999990     0.0
 632160 │  999991     0.0
 632161 │  999992     0.0
 632162 │  999993     0.0
 632163 │  999994     0.0
 632164 │  999996     0.0
 632165 │  999997     0.0
 632166 │ 1000000     0.0
            632149 rows omitted
```
…
So first define a helper function:

```
julia> withempty(f, default) = x -> isempty(x) ? default : f(x)
withempty (generic function with 1 method)
```

and now we can write:

```
julia> combine(groupby(df, :id),
               :value => withempty(median, missing)∘skipmissing)
632166×2 DataFrame
    Row │ id       value_function_skipmissing
        │ Int64    Union{Missing, Float64}
────────┼─────────────────────────────────────
      1 │       2                         3.5
      2 │       3                         5.0
      3 │       4                         8.0
      4 │       6                         4.0
      5 │       8                         1.0
      6 │       9                         9.0
      7 │      12                   missing
      8 │      15                         3.0
      9 │      16                         7.0
   ⋮    │    ⋮                 ⋮
 632159 │  999990                         4.0
 632160 │  999991                         3.0
 632161 │  999992                         8.0
 632162 │  999993                         2.0
 632163 │  999994                         7.0
 632164 │  999996                         4.0
 632165 │  999997                         7.0
 632166 │ 1000000                         7.0
                           632149 rows omitted
```
…
