…
           profiles = CSV.read("instagram_profiles.csv", DataFrame,
                               select=[:profile_id, :n_posts])
           locations = CSV.read("instagram_locations.csv", DataFrame,
                                select=[:id, :dir_country_name])
           posts2 = dropmissing(posts)
           profiles2 = combine(groupby(dropmissing(profiles), :profile_id),
                               :n_posts => maximum => :n_posts)
           locations2 = dropmissing(locations)
           leftjoin!(posts2, profiles2, on="profile_id")
           leftjoin!(posts2, locations2, on="location_id" => "id")
           gdf = groupby(posts2, "dir_country_name", sort=true, skipmissing=true)
           combine(gdf, [:n_posts, :number_comments] .=> mean∘skipmissing)
       end
 23.323866 seconds (514.97 k allocations: 5.622 GiB, 3.30% gc time)
235×3 DataFrame
 Row │ dir_country_name      n_posts_mean_skipmissing  number_comments_mean_skipmissing
     │ String?               Float64                   Float64
─────┼──────────────────────────────────────────────────────────────────────────────────
   1 │ Afghanistan                            445.58                            8.10767
   2 │ Albania                                524.789                           6.83736
   3 │ Algeria                                353.933                           9.9979
   4 │ American Samoa                         117.692                           7.87879
   5 │ Andorra                                486.206                           7.01296
   6 │ Angola                                 469.621                           7.48282
   7 │ Anguilla                              1206.22                            4.77193
   8 │ Antarctica                            1165.97                           20.3073
   9 │ Antigua                                638.995                           8.05999
  10 │ Argentina                              727.673                          11.0821
  11 │ Armenia                                663.196                           4.76728
  ⋮  │          ⋮                       ⋮                             ⋮
 226 │ Uruguay                                560.936                           8.00079
 227 │ Uzbekistan                             445.975                           8.84245
 228 │ Vanuatu                                539.349                           4.63688
 229 │ Vatican City                           583.498                           7.05353
 230 │ Venezuela                              551.79                            9.4976
 231 │ Vietnam                                582.829                           4.46671
 232 │ Western Sahara                         643.888                           4.6676
 233 │ Yemen                                  411.5                            27.9416
 234 │ Zambia                                 411.779                           7.09239
 235 │ Zimbabwe                               518.17                            8.3875
                                                                        214 rows omitted
```
…
                            FROM 'instagram_profiles.csv'
                            WHERE profile_id IS NOT NULL
                                  AND n_posts IS NOT NULL
                            GROUP BY profile_id) pr
                 ON po.profile_id = pr.profile_id
                 LEFT JOIN (SELECT id, dir_country_name FROM 'instagram_locations.csv'
                            WHERE id IS NOT NULL
                                  AND dir_country_name IS NOT NULL) loc
                 ON po.location_id = loc.id)
           WHERE dir_country_name IS NOT NULL
           GROUP BY dir_country_name
           ORDER BY dir_country_name
           """)
 93.220900 seconds (166.60 k allocations: 8.578 MiB, 0.11% compilation time)
235×3 DataFrame
 Row │ dir_country_name      n_posts_mean  number_comments_mean
     │ String?               Float64?      Float64?
─────┼──────────────────────────────────────────────────────────
   1 │ Afghanistan                445.58                8.10767
   2 │ Albania                    524.789               6.83736
   3 │ Algeria                    353.933               9.9979
   4 │ American Samoa             117.692               7.87879
   5 │ Andorra                    486.206               7.01296
   6 │ Angola                     469.621               7.48282
   7 │ Anguilla                  1206.22                4.77193
   8 │ Antarctica                1165.97               20.3073
   9 │ Antigua                    638.995               8.05999
  10 │ Argentina                  727.673              11.0821
  11 │ Armenia                    663.196               4.76728
  ⋮  │          ⋮                 ⋮                 ⋮
 226 │ Uruguay                    560.936               8.00079
 227 │ Uzbekistan                 445.975               8.84245
 228 │ Vanuatu                    539.349               4.63688
 229 │ Vatican City               583.498               7.05353
 230 │ Venezuela                  551.79                9.4976
 231 │ Vietnam                    582.829               4.46671
 232 │ Western Sahara             643.888               4.6676
 233 │ Yemen                      411.5                27.9416
 234 │ Zambia                     411.779               7.09239
 235 │ Zimbabwe                   518.17                8.3875
                                                214 rows omitted
```
…
