…
We generate the data for `n` having values `[100, 1000, 10_000, 100_000]`
and `d` having values `0.5:0.1:2.0`. For each combination
of values we repeat the experiment `64` times.

First create an initial data frame with the setup of the experiment:

```
julia> using DataFrames

julia> df = allcombinations(DataFrame,
                            d=0.5:0.1:2.0,
                            n=[100, 1000, 10_000, 100_000],
                            rep=1:64)
4096×3 DataFrame
  Row │ d        n       rep   
      │ Float64  Int64   Int64 
──────┼────────────────────────
    1 │     0.5     100      1
    2 │     0.6     100      1
    3 │     0.7     100      1
    4 │     0.8     100      1
    5 │     0.9     100      1
  ⋮   │    ⋮       ⋮       ⋮
 4092 │     1.6  100000     64
 4093 │     1.7  100000     64
 4094 │     1.8  100000     64
 4095 │     1.9  100000     64
 4096 │     2.0  100000     64
              4086 rows omitted
```

Now we compute `p` for each experiment:

```
julia> df.p = df.d ./ (df.n .- 1);

julia> df
4096×4 DataFrame
  Row │ d        n       rep    p
      │ Float64  Int64   Int64  Float64     
──────┼─────────────────────────────────────
    1 │     0.5     100      1  0.00505051
    2 │     0.6     100      1  0.00606061
    3 │     0.7     100      1  0.00707071
    4 │     0.8     100      1  0.00808081
    5 │     0.9     100      1  0.00909091
  ⋮   │    ⋮       ⋮       ⋮         ⋮
 4092 │     1.6  100000     64  1.60002e-5
 4093 │     1.7  100000     64  1.70002e-5
 4094 │     1.8  100000     64  1.80002e-5
 4095 │     1.9  100000     64  1.90002e-5
 4096 │     2.0  100000     64  2.00002e-5
                           4086 rows omitted
```
Finally for each row we compute the fraction of nodes in the largest component
(the computation takes some time, so I use `@showprogress` to monitor it):

```
julia> using ProgressMeter

julia> df.largest = @showprogress map(eachrow(df)) do row
           er = erdos_renyi(row.n, row.p)
           cc = connected_components(er)
           return maximum(length, cc) / row.n
       end;
Progress: 100%|███████████████████████████████████████████████| Time: 0:00:39

julia> df
4096×5 DataFrame
  Row │ d        n       rep    p            largest 
      │ Float64  Int64   Int64  Float64      Float64 
──────┼──────────────────────────────────────────────
    1 │     0.5     100      1  0.00505051   0.04
    2 │     0.6     100      1  0.00606061   0.07
    3 │     0.7     100      1  0.00707071   0.22
    4 │     0.8     100      1  0.00808081   0.29
    5 │     0.9     100      1  0.00909091   0.35
  ⋮   │    ⋮       ⋮       ⋮         ⋮          ⋮
 4092 │     1.6  100000     64  1.60002e-5   0.64289
 4093 │     1.7  100000     64  1.70002e-5   0.69333
 4094 │     1.8  100000     64  1.80002e-5   0.73421
 4095 │     1.9  100000     64  1.90002e-5   0.77021
 4096 │     2.0  100000     64  2.00002e-5   0.79805
                                    4086 rows omitted
```
…
The structure is easy to remember. After a data frame, we sequentially pass
what we want in rows, what we want in columns, what values we want to unstack,
and finally, a `combine` keyword argument (introduced in DataFrames.jl 1.4)
specifies what operation we want to apply to these values.

By default `combine` is `only`, which means that we want a unique value in
row-column combination and otherwise we get an error. Let us check how
`unstack` works by default by using `[:d, :rep]` for rows, `:n` for columns,
and `:largest` for values:

```
julia> unstack(df, [:d, :rep], :n, :largest)
1024×6 DataFrame
  Row │ d        rep    100       1000      10000     100000   
      │ Float64  Int64  Float64?  Float64?  Float64?  Float64? 
──────┼────────────────────────────────────────────────────────
    1 │     0.5      1      0.04     0.009    0.0017   0.00021
    2 │     0.6      1      0.07     0.046    0.0024   0.00035
    3 │     0.7      1      0.22     0.011    0.0042   0.00048
    4 │     0.8      1      0.29     0.019    0.01     0.00139
    5 │     0.9      1      0.35     0.027    0.0109   0.00166
  ⋮   │    ⋮       ⋮       ⋮         ⋮         ⋮         ⋮
 1020 │     1.6     64      0.63     0.665    0.6419   0.64289
 1021 │     1.7     64      0.69     0.683    0.6941   0.69333
 1022 │     1.8     64      0.33     0.746    0.7389   0.73421
 1023 │     1.9     64      0.84     0.761    0.7696   0.77021
 1024 │     2.0     64      0.83     0.818    0.7991   0.79805
                                               1104 rows omitted
```
…
