…
We can see that the number of options is large, but seems within range what
current computers can handle.

Before we proceed let us peek at the contents of one of the data frames to
be sure that its structure is as expected:

```
julia> dfs[1]
3358720×2 DataFrame
     Row │ a      b
         │ Int64  Int64
─────────┼──────────────
       1 │     1      1
       2 │     2      1
       3 │     3      1
    ⋮    │   ⋮      ⋮
 3358718 │  5246    640
 3358719 │  5247    640
 3358720 │  5248    640
    3358714 rows omitted
```
…
Again, let us check how the data frames look after the transformation:

```
julia> nrow.(dfs)
6-element Vector{Int64}:
   1681600
   1238224
   4953504
  10875840
  11145840
 148621760

julia> dfs[1]
1681600×2 DataFrame
     Row │ m           ab
         │ Rational…   Tuple…
─────────┼─────────────────────────
       1 │      41//5  (1, 1)
       2 │     41//10  (2, 1)
       3 │     41//15  (3, 1)
    ⋮    │     ⋮            ⋮
 1681598 │ 5248//5245  (5245, 640)
 1681599 │ 2624//2623  (5246, 640)
 1681600 │ 5248//5247  (5247, 640)
               1681594 rows omitted
```
…
