…
julia> Base.summarysize(v2)
1000507
```

As you can see there is a significant compression gain in our example by using a `PooledArray`.

The second benefit is performance, especially in combination with DataFrames.jl:

```
julia> using DataFrames

julia> df = DataFrame(; v1, v2)
1000000×2 DataFrame
     Row │ v1      v2
         │ String  String
─────────┼────────────────
       1 │ xtrue   xtrue
       2 │ xfalse  xfalse
       3 │ xtrue   xtrue
    ⋮    │   ⋮       ⋮
  999998 │ xfalse  xfalse
  999999 │ xtrue   xtrue
 1000000 │ xfalse  xfalse
       999994 rows omitted
```
…
There are three cases when you might not see benefits from using `PooledArray`.

The first is when you have many unique values in your data. Then you have to pay the price
of storing `refs`, `pool`, and `invpool` objects and all of them will be large.

The second is if you have a value that you store that has a small memory footprint, e.g. `Bool`
and you did not use `compress=true`. In such a case `refs` will take more memory than original data would.

The third case is when you create multiple copies of a `PooledArray` and modify its pool. In such a case
the cost of copying of the `pool` and `invpool` fields might be non-negligible. Let me show you a practical
example of the third situation:

```
julia> df2 = DataFrame(id=1:10^6, v=PooledArray(repeat(["x$i" for i in 1:1000], 1000)))
1000000×2 DataFrame
     Row │ id       v
         │ Int64    String
─────────┼─────────────────
       1 │       1  x1
       2 │       2  x2
       3 │       3  x3
    ⋮    │    ⋮       ⋮
  999998 │  999998  x998
  999999 │  999999  x999
 1000000 │ 1000000  x1000
        999994 rows omitted
…
julia> @time innerjoin(df2, df2, on=:id, makeunique=true);
  0.018188 seconds (210 allocations: 30.528 MiB)

julia> innerjoin(df3, df3, on=:id, makeunique=true);

julia> @time innerjoin(df3, df3, on=:id, makeunique=true);
  0.029364 seconds (206 allocations: 38.157 MiB)
```

What is going on here? Let us look at the output:

```
julia> outerjoin(df2, df2, on=:id, makeunique=true)
1000000×3 DataFrame
     Row │ id       v        v_1
         │ Int64    String?  String?
─────────┼───────────────────────────
       1 │       1  x1       x1
       2 │       2  x2       x2
       3 │       3  x3       x3
    ⋮    │    ⋮        ⋮        ⋮
  999998 │  999998  x998     x998
  999999 │  999999  x999     x999
 1000000 │ 1000000  x1000    x1000
                  999994 rows omitted

julia> innerjoin(df2, df2, on=:id, makeunique=true)
1000000×3 DataFrame
     Row │ id       v       v_1
         │ Int64    String  String
─────────┼─────────────────────────
       1 │       1  x1      x1
       2 │       2  x2      x2
       3 │       3  x3      x3
    ⋮    │    ⋮       ⋮       ⋮
  999998 │  999998  x998    x998
  999999 │  999999  x999    x999
 1000000 │ 1000000  x1000   x1000
                999994 rows omitted
```
…
