…
```
julia> using DataFrames

julia> using Random

julia> Random.seed!(1234);

julia> df1 = DataFrame(rand(1000, 4), :auto);

julia> df1.period = 1:1000;

julia> df1
1000×5 DataFrame
  Row │ x1         x2         x3        x4         period
      │ Float64    Float64    Float64   Float64    Int64
──────┼───────────────────────────────────────────────────
    1 │ 0.579862   0.473374   0.366288  0.771849        1
    2 │ 0.411294   0.176997   0.652475  0.938484        2
    3 │ 0.972136   0.676856   0.900155  0.390673        3
    4 │ 0.0149088  0.177963   0.374975  0.694063        4
  ⋮   │     ⋮          ⋮         ⋮          ⋮        ⋮
  997 │ 0.424295   0.78012    0.577681  0.274228      997
  998 │ 0.481554   0.0441882  0.700181  0.317677      998
  999 │ 0.401528   0.658903   0.438309  0.211217      999
 1000 │ 0.58985    0.909857   0.354735  0.442829     1000
                                          992 rows omitted
```

# Reshaping data: wide to long

The first operation we want to do is reshaping the data from wide to long format,
in which we will have three columns: the period, the variable name, and the variable value.
To achieve this we can use the `stack` function:

```
julia> df2 = stack(df1, Not(:period))
4000×3 DataFrame
  Row │ period  variable  value
      │ Int64   String    Float64
──────┼─────────────────────────────
    1 │      1  x1        0.579862
    2 │      2  x1        0.411294
    3 │      3  x1        0.972136
    4 │      4  x1        0.0149088
  ⋮   │   ⋮        ⋮          ⋮
 3997 │    997  x4        0.274228
 3998 │    998  x4        0.317677
 3999 │    999  x4        0.211217
 4000 │   1000  x4        0.442829
                   3992 rows omitted
```
…
