…
The post was written under Julia 1.9.0, Chain 0.5.0, DataFrames.jl 1.5.0, and RDatasets 0.7.7.

# The data

We will work with the classical [`diamonds`][diamonds] dataset. Let us load it first:

```
julia> using DataFrames

julia> using Chain

julia> using RDatasets

julia> diamonds = RDatasets.dataset("ggplot2", "diamonds")
53940×10 DataFrame
   Row │ Carat    Cut        Color  Clarity  Depth    Table    Price  X        Y        Z
       │ Float64  Cat…       Cat…   Cat…     Float64  Float64  Int32  Float64  Float64  Float64
───────┼────────────────────────────────────────────────────────────────────────────────────────
     1 │    0.23  Ideal      E      SI2         61.5     55.0    326     3.95     3.98     2.43
     2 │    0.21  Premium    E      SI1         59.8     61.0    326     3.89     3.84     2.31
     3 │    0.23  Good       E      VS1         56.9     65.0    327     4.05     4.07     2.31
     4 │    0.29  Premium    I      VS2         62.4     58.0    334     4.2      4.23     2.63
     5 │    0.31  Good       J      SI2         63.3     58.0    335     4.34     4.35     2.75
     6 │    0.24  Very Good  J      VVS2        62.8     57.0    336     3.94     3.96     2.48
     7 │    0.24  Very Good  I      VVS1        62.3     57.0    336     3.95     3.98     2.47
     8 │    0.26  Very Good  H      SI1         61.9     55.0    337     4.07     4.11     2.53
     9 │    0.22  Fair       E      VS2         65.1     61.0    337     3.87     3.78     2.49
    10 │    0.23  Very Good  H      VS1         59.4     61.0    338     4.0      4.05     2.39
    11 │    0.3   Good       J      SI1         64.0     55.0    339     4.25     4.28     2.73
    12 │    0.23  Ideal      J      VS1         62.8     56.0    340     3.93     3.9      2.46
    13 │    0.22  Premium    F      SI1         60.4     61.0    342     3.88     3.84     2.33
    14 │    0.31  Ideal      J      SI2         62.2     54.0    344     4.35     4.37     2.71
   ⋮   │    ⋮         ⋮        ⋮       ⋮        ⋮        ⋮       ⋮       ⋮        ⋮        ⋮
 53928 │    0.79  Good       F      SI1         58.1     59.0   2756     6.06     6.13     3.54
 53929 │    0.79  Premium    E      SI2         61.4     58.0   2756     6.03     5.96     3.68
 53930 │    0.71  Ideal      G      VS1         61.4     56.0   2756     5.76     5.73     3.53
 53931 │    0.71  Premium    E      SI1         60.5     55.0   2756     5.79     5.74     3.49
 53932 │    0.71  Premium    F      SI1         59.8     62.0   2756     5.74     5.73     3.43
 53933 │    0.7   Very Good  E      VS2         60.5     59.0   2757     5.71     5.76     3.47
 53934 │    0.7   Very Good  E      VS2         61.2     59.0   2757     5.69     5.72     3.49
 53935 │    0.72  Premium    D      SI1         62.7     59.0   2757     5.69     5.73     3.58
 53936 │    0.72  Ideal      D      SI1         60.8     57.0   2757     5.75     5.76     3.5
 53937 │    0.72  Good       D      SI1         63.1     55.0   2757     5.69     5.75     3.61
 53938 │    0.7   Very Good  D      SI1         62.8     60.0   2757     5.66     5.68     3.56
 53939 │    0.86  Premium    H      SI2         61.0     58.0   2757     6.15     6.12     3.74
 53940 │    0.75  Ideal      D      SI2         62.2     55.0   2757     5.83     5.87     3.64
                                                                              53913 rows omitted
```
…
