…
Now we store the data in our data frame:

```
julia> foreach(row -> push!(data_df, row[DATA_COLSKEEP]), data_json.data)

julia> show(data_df, truncate=10)
112634×7 DataFrame
    Row │ vin_1_10    state   model_year  make         ev_type      cafv_type    electric_range
        │ String      String  String      String       String       String       String
────────┼───────────────────────────────────────────────────────────────────────────────────────
      1 │ JTMEB3FV6N  FL      2022        TOYOTA       Plug-in Hy…  Clean Alte…  42
      2 │ 1G1RD6E45D  NV      2013        CHEVROLET    Plug-in Hy…  Clean Alte…  38
      3 │ JN1AZ0CP8B  WA      2011        NISSAN       Battery El…  Clean Alte…  73
      4 │ 1G1FW6S08H  WA      2017        CHEVROLET    Battery El…  Clean Alte…  238
      5 │ 3FA6P0SU1K  WA      2019        FORD         Plug-in Hy…  Not eligib…  26
      6 │ 5YJ3E1EB5J  WA      2018        TESLA        Battery El…  Clean Alte…  215
   ⋮    │     ⋮         ⋮         ⋮            ⋮            ⋮            ⋮             ⋮
 112630 │ 7SAYGDEF2N  WA      2022        TESLA        Battery El…  Eligibilit…  0
 112631 │ 1N4BZ1CP7K  WA      2019        NISSAN       Battery El…  Clean Alte…  150
 112632 │ 1FMCU0KZ4N  WA      2022        FORD         Plug-in Hy…  Clean Alte…  38
 112633 │ KNDCD3LD4J  WA      2018        KIA          Plug-in Hy…  Not eligib…  26
 112634 │ YV4BR0CL8N  WA      2022        VOLVO        Plug-in Hy…  Not eligib…  18
                                                                             112623 rows omitted
…
