…
julia> df
10000×10 DataFrame
   Row │ x1           x2          x3           x4           x5           x6          ⋯
       │ Float64      Float64     Float64      Float64      Float64      Float64     ⋯
───────┼──────────────────────────────────────────────────────────────────────────────
     1 │  0.0619327    0.0623264   0.0613998    0.0466594    0.0481949    0.0454962  ⋯
     2 │  0.217879     0.216951    0.217742     0.00738607   0.00888615   0.00626926
     3 │  1.54641      1.54598     1.54328     -1.00261     -1.0013      -0.999863
     4 │  0.208777     0.207593    0.209145    -1.21253     -1.21556     -1.21462
     5 │ -0.458805    -0.458081   -0.457956     0.103491     0.10537      0.103313   ⋯
     6 │  0.392072     0.390938    0.390447    -0.354123    -0.354995    -0.353026
     7 │ -0.313095    -0.310223   -0.311185     1.09256      1.09373      1.09443
   ⋮   │      ⋮           ⋮            ⋮            ⋮            ⋮            ⋮      ⋱
  9994 │ -1.24411     -1.24363    -1.24439     -0.789893    -0.793004    -0.792177
  9995 │  0.199036     0.199199    0.199344     0.945945     0.945308     0.943717   ⋯
  9996 │  1.81075      1.80926     1.81064     -2.53813     -2.53805     -2.53996
  9997 │ -0.00896532  -0.0079907  -0.00876527  -0.629303    -0.629402    -0.630129
  9998 │ -1.62881     -1.62626    -1.62703     -0.222873    -0.222469    -0.22166
  9999 │  1.45152      1.44833     1.45131     -2.543       -2.54377     -2.544      ⋯
 10000 │  0.436075     0.435492    0.436974    -0.28131     -0.281519    -0.283039
                                                       4 columns and 9986 rows omitted
```
…
