…
 1
 0
 1
```

We are now ready to generate the table holding all player triplets.
Note that I want to ensure that each triplet is stored in it only
once (with respect to permutation) so I filter it ensuring that
player numbers are increasing:

```
julia> df = allcombinations(DataFrame, x1=1:300, x2=1:300, x3=1:300)
27000000×3 DataFrame
      Row │ x1     x2     x3
          │ Int64  Int64  Int64
──────────┼─────────────────────
        1 │     1      1      1
        2 │     2      1      1
        3 │     3      1      1
        4 │     4      1      1
    ⋮     │   ⋮      ⋮      ⋮
 26999997 │   297    300    300
 26999998 │   298    300    300
 26999999 │   299    300    300
 27000000 │   300    300    300
           26999992 rows omitted

julia> subset!(df, [[:x1, :x2], [:x2, :x3]] .=> ByRow(<))
4455100×3 DataFrame
     Row │ x1     x2     x3
         │ Int64  Int64  Int64
─────────┼─────────────────────
       1 │     1      2      3
       2 │     1      2      4
       3 │     1      3      4
       4 │     2      3      4
    ⋮    │   ⋮      ⋮      ⋮
 4455097 │   295    299    300
 4455098 │   296    299    300
 4455099 │   297    299    300
 4455100 │   298    299    300
           4455092 rows omitted
```

Now for each triplet we add the player type information
and next call the `result` function to randomly decide
if a given player pair scored or not:

```
julia> transform!(df, All() .=> (x -> ids[x]) .=> [:t1, :t2, :t3])
4455100×6 DataFrame
     Row │ x1     x2     x3     t1     t2     t3
         │ Int64  Int64  Int64  Int64  Int64  Int64
─────────┼──────────────────────────────────────────
       1 │     1      2      3      1      1      0
       2 │     1      2      4      1      1      1
       3 │     1      3      4      1      0      1
       4 │     2      3      4      1      0      1
    ⋮    │   ⋮      ⋮      ⋮      ⋮      ⋮      ⋮
 4455097 │   295    299    300      0      0      1
 4455098 │   296    299    300      0      0      1
 4455099 │   297    299    300      0      0      1
 4455100 │   298    299    300      1      0      1
                                4455092 rows omitted

julia> transform!(df, r"t" => ByRow(result) => :result)
4455100×7 DataFrame
     Row │ x1     x2     x3     t1     t2     t3     result
         │ Int64  Int64  Int64  Int64  Int64  Int64  Bool
─────────┼──────────────────────────────────────────────────
       1 │     1      2      3      1      1      0    true
       2 │     1      2      4      1      1      1   false
       3 │     1      3      4      1      0      1    true
       4 │     2      3      4      1      0      1    true
    ⋮    │   ⋮      ⋮      ⋮      ⋮      ⋮      ⋮      ⋮
 4455097 │   295    299    300      0      0      1    true
 4455098 │   296    299    300      0      0      1    true
 4455099 │   297    299    300      0      0      1    true
 4455100 │   298    299    300      1      0      1   false
                                        4455092 rows omitted
```
…
Start with computing mean scoring probability by player
and number of times each player was present in
the data (and sort the data frame by mean result
so see if there are any large differences in it):

```
julia> @chain df begin
           [select(_, "x$i" => :x, :result) for i in 1:3]
               vcat(_...)
           groupby(:x)
           combine(:result => mean, nrow)
           sort!(:result_mean)
       end
300×3 DataFrame
 Row │ x      result_mean  nrow
     │ Int64  Float64      Int64
─────┼───────────────────────────
   1 │   106     0.341294  44551
   2 │   121     0.341429  44551
   3 │    10     0.341878  44551
   4 │    46     0.342529  44551
   5 │    71     0.342596  44551
   6 │     2     0.342663  44551
   7 │   281     0.342776  44551
   8 │    60     0.342865  44551
   9 │   233     0.342888  44551
  10 │    73     0.343045  44551
  11 │   266     0.34318   44551
  12 │   131     0.343202  44551
  13 │    40     0.343225  44551
  14 │   138     0.343292  44551
  ⋮  │   ⋮         ⋮         ⋮
 288 │   176     0.350205  44551
 289 │   293     0.350205  44551
 290 │    19     0.35034   44551
 291 │    48     0.350407  44551
 292 │   155     0.350632  44551
 293 │   195     0.350744  44551
 294 │   132     0.350879  44551
 295 │    96     0.351103  44551
 296 │   110     0.35144   44551
 297 │   172     0.351687  44551
 298 │   254     0.351687  44551
 299 │   231     0.352383  44551
 300 │   163     0.354964  44551
                 273 rows omitted
```
…
