…
Spoiler! The post is a bit long. If you want simple advice - you can skip to the section with conclusions.

The post was written using Julia 1.9.2 and DataFrames.jl 1.6.1.

# Getting a column from a data frame

Let us start with a simpler case. When does copying happen if we get a column form a data frame?

First we set up some initial data:

```
julia> using DataFrames

julia> df = DataFrame(a=1:10^6)
1000000×1 DataFrame
     Row │ a
         │ Int64
─────────┼─────────
       1 │       1
       2 │       2
       3 │       3
       4 │       4
       5 │       5
    ⋮    │    ⋮
  999997 │  999997
  999998 │  999998
  999999 │  999999
 1000000 │ 1000000
999991 rows omitted
```
…
