…
Assuming you downloaded and unpacked the dataset into the `puzzles.csv` file
we read it in. We are interested only in columns 3 and 8 of this file,
so I use the following commands:

```
julia> using CSV

julia> using DataFrames

julia> df = CSV.read("puzzles.csv", DataFrame; select=[3, 8], header=false)
2132989×2 DataFrame
     Row │ Column3                            Column8
         │ String                             String
─────────┼──────────────────────────────────────────────────────────────────────
       1 │ f2g3 e6e7 b2b1 b3c1 b1c1 h6c1      crushing hangingPiece long middl…
       2 │ d3d6 f8d8 d6d8 f6d8                advantage endgame short
       3 │ b6c5 e2g4 h3g4 d1g4                advantage middlegame short
       4 │ g5e7 a5c3 b2c3 c6e7                advantage master middlegame short
       5 │ e8f7 e2e6 f7f8 e6f7                mate mateIn2 middlegame short
       6 │ a6a5 e5c7 a5b4 c7d8                crushing endgame fork short
       7 │ d4b6 f6e4 h1g1 e4f2                crushing endgame short trappedPi…
       8 │ d8f6 d1h5 h7h6 h5c5                advantage middlegame short
    ⋮    │                 ⋮                                  ⋮
 2132982 │ d2c2 c5d3 c2d3 c4d3                crushing fork middlegame short
 2132983 │ b8d7 c3b5 d6b8 a1c1 e8g8 b5c7      crushing long middlegame quietMo…
 2132984 │ g7g6 d5c6 c5c4 b3c4 b4c4 c6d6      crushing defensiveMove endgame l…
 2132985 │ g1h1 e3e1 f7f1 e1f1                endgame mate mateIn2 short
 2132986 │ g5c1 d5d6 d7f6 h7h8                advantage middlegame short
 2132987 │ d2f3 d8a5 c1d2 a5b5                advantage fork opening short
 2132988 │ f7f2 b2c2 c1b1 e2d1                endgame mate mateIn2 queensideAt…
 2132989 │ c6d4 f1e1 e8d8 b1c3 d4f3 g2f3      advantage long opening
                                                            2132973 rows omitted

julia> rename!(df, ["moves", "tags"])
2132989×2 DataFrame
     Row │ moves                              tags
         │ String                             String
─────────┼──────────────────────────────────────────────────────────────────────
       1 │ f2g3 e6e7 b2b1 b3c1 b1c1 h6c1      crushing hangingPiece long middl…
       2 │ d3d6 f8d8 d6d8 f6d8                advantage endgame short
       3 │ b6c5 e2g4 h3g4 d1g4                advantage middlegame short
       4 │ g5e7 a5c3 b2c3 c6e7                advantage master middlegame short
       5 │ e8f7 e2e6 f7f8 e6f7                mate mateIn2 middlegame short
       6 │ a6a5 e5c7 a5b4 c7d8                crushing endgame fork short
       7 │ d4b6 f6e4 h1g1 e4f2                crushing endgame short trappedPi…
       8 │ d8f6 d1h5 h7h6 h5c5                advantage middlegame short
    ⋮    │                 ⋮                                  ⋮
 2132982 │ d2c2 c5d3 c2d3 c4d3                crushing fork middlegame short
 2132983 │ b8d7 c3b5 d6b8 a1c1 e8g8 b5c7      crushing long middlegame quietMo…
 2132984 │ g7g6 d5c6 c5c4 b3c4 b4c4 c6d6      crushing defensiveMove endgame l…
 2132985 │ g1h1 e3e1 f7f1 e1f1                endgame mate mateIn2 short
 2132986 │ g5c1 d5d6 d7f6 h7h8                advantage middlegame short
 2132987 │ d2f3 d8a5 c1d2 a5b5                advantage fork opening short
 2132988 │ f7f2 b2c2 c1b1 e2d1                endgame mate mateIn2 queensideAt…
 2132989 │ c6d4 f1e1 e8d8 b1c3 d4f3 g2f3      advantage long opening
                                                            2132973 rows omitted
```
…
Let us check it.

# The solution

As a first step we (in place, i.e. modifying our `df` data frame) transform the original columns
into more convenient form. Instead of the raw `"moves"` I want the `"nmoves"` column that gives me
a number of moves in the puzzle. Similarly instead of `"tags"` I want indicator columns `"mateInX"`
for `X` ranging from 1 to 5 showing me the puzzle type. Here is how you can achieve this:

```
julia> select!(df,
               "moves" => ByRow(length∘split) => "nmoves",
               ["tags" => ByRow(contains("mateIn$i")) => "mateIn$i" for i in 1:5])
2132989×6 DataFrame
     Row │ nmoves  mateIn1  mateIn2  mateIn3  mateIn4  mateIn5
         │ Int64   Bool     Bool     Bool     Bool     Bool
─────────┼─────────────────────────────────────────────────────
       1 │      6    false    false    false    false    false
       2 │      4    false    false    false    false    false
       3 │      4    false    false    false    false    false
       4 │      4    false    false    false    false    false
       5 │      4    false     true    false    false    false
       6 │      4    false    false    false    false    false
       7 │      4    false    false    false    false    false
       8 │      4    false    false    false    false    false
    ⋮    │   ⋮        ⋮        ⋮        ⋮        ⋮        ⋮
 2132982 │      4    false    false    false    false    false
 2132983 │      6    false    false    false    false    false
 2132984 │      6    false    false    false    false    false
 2132985 │      4    false     true    false    false    false
 2132986 │      4    false    false    false    false    false
 2132987 │      4    false    false    false    false    false
 2132988 │      4    false     true    false    false    false
 2132989 │      6    false    false    false    false    false
                                           2132973 rows omitted
```

Now we see that some of the rows are not tagged as `"mateInX"`. Let us filter them out,
to have only tagged rows left (again, we do the operation in-place):

```
julia> filter!(row -> any(row[Not("nmoves")]), df)
491743×6 DataFrame
    Row │ nmoves  mateIn1  mateIn2  mateIn3  mateIn4  mateIn5
        │ Int64   Bool     Bool     Bool     Bool     Bool
────────┼─────────────────────────────────────────────────────
      1 │      4    false     true    false    false    false
      2 │      4    false     true    false    false    false
      3 │      2     true    false    false    false    false
      4 │      4    false     true    false    false    false
      5 │      2     true    false    false    false    false
      6 │      4    false     true    false    false    false
      7 │      4    false     true    false    false    false
      8 │      2     true    false    false    false    false
   ⋮    │   ⋮        ⋮        ⋮        ⋮        ⋮        ⋮
 491736 │      6    false    false     true    false    false
 491737 │      4    false     true    false    false    false
 491738 │      2     true    false    false    false    false
 491739 │      4    false     true    false    false    false
 491740 │      2     true    false    false    false    false
 491741 │      2     true    false    false    false    false
 491742 │      4    false     true    false    false    false
 491743 │      4    false     true    false    false    false
                                           491727 rows omitted
```
…
