…
julia> Random.seed!(1234);

julia> @time for p in ps, rep in 1:16
           push!(df, (p, rep, run_sim(10_000, p)))
       end
 79.190585 seconds (438.02 M allocations: 14.196 GiB, 7.13% gc time, 0.36% compilation time)

julia> df
80×3 DataFrame
 Row │ p        rep    res
     │ Float64  Int64  Float64
─────┼─────────────────────────
   1 │  1.0e-5      1   0.0948
   2 │  1.0e-5      2   0.094
   3 │  1.0e-5      3   0.097
   4 │  1.0e-5      4   0.0892
   5 │  1.0e-5      5   0.0848
   6 │  1.0e-5      6   0.093
  ⋮  │    ⋮       ⋮       ⋮
  76 │  0.1        12   0.9992
  77 │  0.1        13   0.999
  78 │  0.1        14   0.999
  79 │  0.1        15   0.999
  80 │  0.1        16   0.9988
                69 rows omitted
```
…
